008
288
203
180
125
171
213
000
138
119
134
123
056
066
114
144
128
128
117
155
133
100
141
088
102
253
120
116
098
090
065
062
106
088
080
119
219
126
114
125
095
095
132
000
082
081
085
077
000
095
111
000
115
000
133
152
086
080
000
000
075
000
074
082
077
078
000
120
121
114
099
100
093
130
115
000
000
118
125
122
110
000
119
000
000
000
106
114
119
110
106
000
104
102
000
115
102
106
000
111
112
110
106
000
110
110
114
111
115
000
116
116
118
120
