يَٰصَىٰحِبَىِ	يَـٰصَـٰحِبَىِ
بَعْدَ مَا	بَعْدَمَا
لْـَٔا	لْءَا
لَـَٔا	لَءَا
لِـَٔا	لِءَا
لُـَٔا	لُءَا
لَّـَٔا	لَّءَا
لِّـَٔا	لِّءَا
لُّـَٔا	لُّءَا
ۭى	ى
ى	Ω
Ωٰ	ىٰ
َΩ\r	ىَ
ًΩ\r	ىً
َΩ 	ىَ 
ًΩ 	ىً 
Ω	ي
ٰٔ	ء
۩	
۞ 	
ْ	
ِ	
َ	
ۥ	
ُ	
ّ	
ىٰ	ي
ى	ي
ـٰ	
ٰ	
ٓ	
ً	
ٍ	
ٌ	
۟	
ۛ	
ـۧ	
ۦ	
ۖ	
ۭ	
ۢ	
ۚ	
ۗ	
 ۜ	
ۜ	
ۣ	
ۙ	
ۘ	
۠	
ـۨ	
ۨ	
۪	
۫	
۬	
ـٔ	
ٔ	
ـ	
ء	
ٱ	ا
ا	ا
آ	ا
أ	ا
إ	ا
ب	ب
ت	ت
ث	ث
ج	ج
ح	ح
خ	خ
د	د
ذ	ذ
ر	ر
ز	ز
س	س
ش	ش
ص	ص
ض	ض
ط	ط
ظ	ظ
ع	ع
غ	غ
ف	ف
ق	ق
ك	ك
ل	ل
م	م
ن	ن
ه	ه
ة	ه
و	و
ؤ	و
ي	ي
ئ	ي
